%YAML 1.1
%TAG !u! tag:unity3d.com,2011:
--- !u!114 &11400000
MonoBehaviour:
  m_ObjectHideFlags: 0
  m_CorrespondingSourceObject: {fileID: 0}
  m_PrefabInstance: {fileID: 0}
  m_PrefabAsset: {fileID: 0}
  m_GameObject: {fileID: 0}
  m_Enabled: 1
  m_EditorHideFlags: 0
  m_Script: {fileID: 11500000, guid: d69a2b4359a240d398288bd16e5289fb, type: 3}
  m_Name: Mechanism Creation Data
  m_EditorClassIdentifier: 
  mechanismData:
    ObjectPath: {fileID: 919132149155446097, guid: f2cd7de36dd51374dbe0d0592ad0816f,
      type: 3}
    TargetFolderPath: {fileID: 102900000, guid: 19ca76a613dc44c488b91a78f136f72b,
      type: 3}
    ExcludeFromParts:
    - {fileID: 7088087613931472842, guid: f2cd7de36dd51374dbe0d0592ad0816f, type: 3}
    Columns:
    - {fileID: 7088087613931472842, guid: f2cd7de36dd51374dbe0d0592ad0816f, type: 3}
    AnchorLocalPosition: {x: 0, y: 2.5, z: 0}
    Name: W3_M9
    Materials:
    - Scheme: {fileID: 11400000, guid: 88ad2ea20ebf06140a9b641d4ae31d52, type: 2}
      Material: {fileID: 2100000, guid: 14616c9b3800e71499c7eb1285428780, type: 2}
    - Scheme: {fileID: 11400000, guid: 2572bf4aac14e1641b377282f44b9ea2, type: 2}
      Material: {fileID: 2100000, guid: a0ee62af1f024194ea47545645b5fabf, type: 2}
    ColumnMaterial: {fileID: 2100000, guid: 3447f9fca87594542b1e15896d79353f, type: 2}
