%YAML 1.1
%TAG !u! tag:unity3d.com,2011:
--- !u!21 &2100000
Material:
  serializedVersion: 6
  m_ObjectHideFlags: 0
  m_CorrespondingSourceObject: {fileID: 0}
  m_PrefabInstance: {fileID: 0}
  m_PrefabAsset: {fileID: 0}
  m_Name: Column_C4
  m_Shader: {fileID: 4800000, guid: 03db68103716ec14a9f5fba550d58b14, type: 3}
  m_ShaderKeywords: 
  m_LightmapFlags: 4
  m_EnableInstancingVariants: 0
  m_DoubleSidedGI: 0
  m_CustomRenderQueue: -1
  stringTagMap: {}
  disabledShaderPasses: []
  m_SavedProperties:
    serializedVersion: 3
    m_TexEnvs:
    - _BaseMap:
        m_Texture: {fileID: 2800000, guid: 4c3f9a29975f5894d85f1ed6bac9cf0d, type: 3}
        m_Scale: {x: 1, y: 1}
        m_Offset: {x: 0, y: 0}
    - _BumpMap:
        m_Texture: {fileID: 0}
        m_Scale: {x: 1, y: 1}
        m_Offset: {x: 0, y: 0}
    - _Cube:
        m_Texture: {fileID: 8900000, guid: 0f728ede68b12aa4f9ace89c0ae30ddc, type: 3}
        m_Scale: {x: 1, y: 1}
        m_Offset: {x: 0, y: 0}
    - _DetailAlbedoMap:
        m_Texture: {fileID: 0}
        m_Scale: {x: 1, y: 1}
        m_Offset: {x: 0, y: 0}
    - _DetailMask:
        m_Texture: {fileID: 0}
        m_Scale: {x: 1, y: 1}
        m_Offset: {x: 0, y: 0}
    - _DetailNormalMap:
        m_Texture: {fileID: 0}
        m_Scale: {x: 1, y: 1}
        m_Offset: {x: 0, y: 0}
    - _EmissionMap:
        m_Texture: {fileID: 0}
        m_Scale: {x: 1, y: 1}
        m_Offset: {x: 0, y: 0}
    - _MainTex:
        m_Texture: {fileID: 2800000, guid: 4c3f9a29975f5894d85f1ed6bac9cf0d, type: 3}
        m_Scale: {x: 1, y: 1}
        m_Offset: {x: 0, y: 0}
    - _MatCap:
        m_Texture: {fileID: 2800000, guid: 2b06c4e4935b5a14c98d8228fac57150, type: 3}
        m_Scale: {x: 1, y: 1}
        m_Offset: {x: 0, y: 0}
    - _MatCapB:
        m_Texture: {fileID: 2800000, guid: 90b8b432d8803544aba092da11ca50c4, type: 3}
        m_Scale: {x: 1, y: 1}
        m_Offset: {x: 0, y: 0}
    - _MatCapG:
        m_Texture: {fileID: 2800000, guid: 2b06c4e4935b5a14c98d8228fac57150, type: 3}
        m_Scale: {x: 1, y: 1}
        m_Offset: {x: 0, y: 0}
    - _MatCapR:
        m_Texture: {fileID: 2800000, guid: 0d8967abc472c614d84aba0e80472967, type: 3}
        m_Scale: {x: 1, y: 1}
        m_Offset: {x: 0, y: 0}
    - _MetallicGlossMap:
        m_Texture: {fileID: 0}
        m_Scale: {x: 1, y: 1}
        m_Offset: {x: 0, y: 0}
    - _OcclusionMap:
        m_Texture: {fileID: 0}
        m_Scale: {x: 1, y: 1}
        m_Offset: {x: 0, y: 0}
    - _OverlayedMask:
        m_Texture: {fileID: 0}
        m_Scale: {x: 1, y: 1}
        m_Offset: {x: 0, y: 0}
    - _ParallaxMap:
        m_Texture: {fileID: 0}
        m_Scale: {x: 1, y: 1}
        m_Offset: {x: 0, y: 0}
    - _RGBmask:
        m_Texture: {fileID: 2800000, guid: d3d6eb8b41d62b242921000997c45df7, type: 3}
        m_Scale: {x: 1, y: 1}
        m_Offset: {x: 0, y: 0}
    - _ReflectionMask:
        m_Texture: {fileID: 2800000, guid: 3a174779cae6f5f4b94bcbc0cd59bc54, type: 3}
        m_Scale: {x: 1, y: 1}
        m_Offset: {x: 0, y: 0}
    - _ReflectionMaskCube:
        m_Texture: {fileID: 0}
        m_Scale: {x: 1, y: 1}
        m_Offset: {x: 0, y: 0}
    - _SpecGlossMap:
        m_Texture: {fileID: 0}
        m_Scale: {x: 1, y: 1}
        m_Offset: {x: 0, y: 0}
    - _SpecialMask:
        m_Texture: {fileID: 10307, guid: 0000000000000000f000000000000000, type: 0}
        m_Scale: {x: 1, y: 1}
        m_Offset: {x: 0, y: 0}
    - unity_Lightmaps:
        m_Texture: {fileID: 0}
        m_Scale: {x: 1, y: 1}
        m_Offset: {x: 0, y: 0}
    - unity_LightmapsInd:
        m_Texture: {fileID: 0}
        m_Scale: {x: 1, y: 1}
        m_Offset: {x: 0, y: 0}
    - unity_ShadowMasks:
        m_Texture: {fileID: 0}
        m_Scale: {x: 1, y: 1}
        m_Offset: {x: 0, y: 0}
    m_Floats:
    - _AlphaClip: 0
    - _Blend: 0
    - _BlendOp: 0
    - _BumpScale: 1
    - _CameraFadingEnabled: 0
    - _CameraFarFadeDistance: 2
    - _CameraNearFadeDistance: 1
    - _ClearCoatMask: 0
    - _ClearCoatSmoothness: 0
    - _ColorMode: 0
    - _Cull: 2
    - _Cutoff: 0.5
    - _DetailAlbedoMapScale: 1
    - _DetailNormalMapScale: 1
    - _DistortionBlend: 0.5
    - _DistortionEnabled: 0
    - _DistortionStrength: 1
    - _DistortionStrengthScaled: 0.1
    - _DstBlend: 0
    - _EnvironmentReflections: 1
    - _FlipbookBlending: 0
    - _FlipbookMode: 0
    - _GlossMapScale: 0
    - _Glossiness: 0
    - _GlossinessSource: 0
    - _GlossyReflections: 0
    - _Metallic: 0
    - _MetallicB: 0.8
    - _MetallicG: 0.1
    - _MetallicR: 0
    - _Mode: 0
    - _OcclusionStrength: 1
    - _Parallax: 0.005
    - _QueueOffset: 0
    - _ReceiveShadows: 1
    - _ReflectionMaskPower: 0.618
    - _ShadingNoise: 20
    - _Shininess: 0
    - _Smoothness: 0.5
    - _SmoothnessSource: 0
    - _SmoothnessTextureChannel: 0
    - _SoftParticlesEnabled: 0
    - _SoftParticlesFarFadeDistance: 1
    - _SoftParticlesNearFadeDistance: 0
    - _SpecSource: 0
    - _SpecularHighlights: 1
    - _SrcBlend: 1
    - _Surface: 0
    - _UseBacklight: 0
    - _UseEmission: 0
    - _UseExtrude: 0
    - _UseRim: 1
    - _UseSpecialColor: 0
    - _UseSphereClip: 0
    - _UseSphereClipShadow: 0
    - _WorkflowMode: 1
    - _ZWrite: 1
    m_Colors:
    - _BaseColor: {r: 0.7058824, g: 0.7058824, b: 0.7058824, a: 1}
    - _BaseColorAddSubDiff: {r: 0, g: 0, b: 0, a: 0}
    - _BaseColorB: {r: 0.754717, g: 0.6224777, b: 0.5731577, a: 1}
    - _BaseColorG: {r: 0.8862746, g: 0.8862746, b: 0.8862746, a: 1}
    - _BaseColorR: {r: 0.9056604, g: 0.9056604, b: 0.9056604, a: 1}
    - _CameraFadeParams: {r: 0, g: 0, b: 0, a: 0}
    - _Color: {r: 1, g: 1, b: 1, a: 1}
    - _EmissionColor: {r: 0, g: 0, b: 0, a: 1}
    - _OverlayedMaskColor: {r: 1, g: 1, b: 1, a: 1}
    - _ReflectionColorB: {r: 0.5566038, g: 0.5566038, b: 0.5566038, a: 1}
    - _ReflectionColorG: {r: 0, g: 0, b: 0, a: 1}
    - _ReflectionColorR: {r: 0.08627451, g: 0.08627451, b: 0.08627451, a: 1}
    - _RimColorB: {r: 0.41568628, g: 0.21538457, b: 0.1529412, a: 0.29411766}
    - _RimColorG: {r: 0.1981132, g: 0.1981132, b: 0.1981132, a: 0.23529412}
    - _RimColorR: {r: 0.11320752, g: 0.11320752, b: 0.11320752, a: 0.19607843}
    - _SoftParticleFadeParams: {r: 0, g: 0, b: 0, a: 0}
    - _SpecColor: {r: 0.2, g: 0.2, b: 0.2, a: 1}
    - _SpecialColor: {r: 1, g: 1, b: 1, a: 1}
  m_BuildTextureStacks: []
--- !u!114 &5633580169553106052
MonoBehaviour:
  m_ObjectHideFlags: 11
  m_CorrespondingSourceObject: {fileID: 0}
  m_PrefabInstance: {fileID: 0}
  m_PrefabAsset: {fileID: 0}
  m_GameObject: {fileID: 0}
  m_Enabled: 1
  m_EditorHideFlags: 0
  m_Script: {fileID: 11500000, guid: d0353a89b1f911e48b9e16bdc9f2e058, type: 3}
  m_Name: 
  m_EditorClassIdentifier: 
  version: 4
