%YAML 1.1
%TAG !u! tag:unity3d.com,2011:
--- !u!114 &11400000
MonoBehaviour:
  m_ObjectHideFlags: 0
  m_CorrespondingSourceObject: {fileID: 0}
  m_PrefabInstance: {fileID: 0}
  m_PrefabAsset: {fileID: 0}
  m_GameObject: {fileID: 0}
  m_Enabled: 1
  m_EditorHideFlags: 0
  m_Script: {fileID: 11500000, guid: bbb281ee3bf0b054c82ac2347e9e782c, type: 3}
  m_Name: Localization-Assets-Shared
  m_EditorClassIdentifier: 
  m_GroupName: Localization-Assets-Shared
  m_Data:
    m_SerializedData: []
  m_GUID: 285b6a63f720f4b9eb44a12b4ba42d87
  m_SerializeEntries:
  - m_GUID: f3ec121d75aca482581ddbac79491c3e
    m_Address: Assets/IOS Locale/Meta Shared Data.asset
    m_ReadOnly: 1
    m_SerializedLabels: []
    FlaggedDuringContentUpdateRestriction: 0
  m_ReadOnly: 1
  m_Settings: {fileID: 11400000, guid: 278ac11840afb894e92a924d10026a72, type: 2}
  m_SchemaSet:
    m_Schemas:
    - {fileID: 11400000, guid: 6b5594ffe0ce74ace91ccb54635fe1cf, type: 2}
    - {fileID: 11400000, guid: 2b4f807d3438a492fb63e4d9a5e1a4ee, type: 2}
