%YAML 1.1
%TAG !u! tag:unity3d.com,2011:
--- !u!114 &11400000
MonoBehaviour:
  m_ObjectHideFlags: 0
  m_CorrespondingSourceObject: {fileID: 0}
  m_PrefabInstance: {fileID: 0}
  m_PrefabAsset: {fileID: 0}
  m_GameObject: {fileID: 0}
  m_Enabled: 1
  m_EditorHideFlags: 0
  m_Script: {fileID: 11500000, guid: bbb281ee3bf0b054c82ac2347e9e782c, type: 3}
  m_Name: Mechanisms_Group_11
  m_EditorClassIdentifier: 
  m_GroupName: Mechanisms_Group_11
  m_Data:
    m_SerializedData: []
  m_GUID: 421225d12b1a13543a64ce6625fa036f
  m_SerializeEntries:
  - m_GUID: 81285d95b5288224ab8260935825198d
    m_Address: W2_M8
    m_ReadOnly: 0
    m_SerializedLabels:
    - Mechanism
    - prefab
    - remote
  - m_GUID: 7c6bfe0cb3f9b3d448c01f9f036fc24d
    m_Address: M1f963cb4a1c3ed241a6ce46fc880e6ed
    m_ReadOnly: 0
    m_SerializedLabels:
    - Cover
    - sprite
    - remote
  - m_GUID: 2f1bb854aa6aa97409356e8497b49cbc
    m_Address: W2_M9
    m_ReadOnly: 0
    m_SerializedLabels:
    - Mechanism
    - prefab
    - remote
  - m_GUID: 4a18b3b7776417141b02c21df25b3895
    m_Address: W2_M10
    m_ReadOnly: 0
    m_SerializedLabels:
    - Mechanism
    - prefab
    - remote
  - m_GUID: 2d56bc8ee37e56c498150be8dfc04fbd
    m_Address: Mba9388199e33d8141902a2fe4c213ff9
    m_ReadOnly: 0
    m_SerializedLabels:
    - Cover
    - sprite
    - remote
  - m_GUID: e3e457e08627fcc4f88ffc2cdd400568
    m_Address: M6b01189f9c4200745a765d5a39e7fa71
    m_ReadOnly: 0
    m_SerializedLabels:
    - Cover
    - sprite
    - remote
  m_ReadOnly: 0
  m_Settings: {fileID: 11400000, guid: 278ac11840afb894e92a924d10026a72, type: 2}
  m_SchemaSet:
    m_Schemas:
    - {fileID: 11400000, guid: d1f0f1086e488a04e8ba98ffbe665dd5, type: 2}
    - {fileID: 11400000, guid: 9700a3888ca44a14486d1bae30637fce, type: 2}
