{
  "frames": [
    {
      "filename": "icon_zoom.png",
      "frame": {
        "x": 0,
        "y": 0,
        "w": 33,
        "h": 32
      },
      "rotated": false,
      "trimmed": false,
      "spriteSourceSize": {
        "x": 0,
        "y": 0,
        "w": 33,
        "h": 32
      },
      "sourceSize": {
        "w": 33,
        "h": 32
      },
      "pivot": {
        "x": 0.5,
        "y": 0.5
      }
    }
  ],
  "meta": {
    "app": "http://www.codeandweb.com/texturepacker",
    "version": "1.0",
    "image": "icon_zoom.png",
    "format": "RGBA8888",
    "size": {
      "w": 33,
      "h": 32
    },
    "scale": "1",
    "smartupdate": "$TexturePacker:SmartUpdate:196a26a2e149d875b91ffc8fa3581e76:fc928c7e275404b7e0649307410475cb:424723c3774975ddb2053fd5c4b85f6e$"
  }
}
