%YAML 1.1
%TAG !u! tag:unity3d.com,2011:
--- !u!114 &11400000
MonoBehaviour:
  m_ObjectHideFlags: 0
  m_CorrespondingSourceObject: {fileID: 0}
  m_PrefabInstance: {fileID: 0}
  m_PrefabAsset: {fileID: 0}
  m_GameObject: {fileID: 0}
  m_Enabled: 1
  m_EditorHideFlags: 0
  m_Script: {fileID: 11500000, guid: 3c33a005d92f45c194b9270a89a84865, type: 3}
  m_Name: W1_M002-W1_M002 Mechanism Data
  m_EditorClassIdentifier: 
  AssetAddress: W1_M2
  MechanismId: 77dc69ff8ef39194aa2fcc9f1040fe60
  WorldId: bbf5cbc7fa08b9e42b2eef3d329a8c9b
  GroupId: f15c5dd8405345f41a6ac624e0c92844
  IsExtraMechanism: 0
  CoverAddress: M77dc69ff8ef39194aa2fcc9f1040fe60
  InterviewYValue: 2.37
