%YAML 1.1
%TAG !u! tag:unity3d.com,2011:
--- !u!114 &11400000
MonoBehaviour:
  m_ObjectHideFlags: 0
  m_CorrespondingSourceObject: {fileID: 0}
  m_PrefabInstance: {fileID: 0}
  m_PrefabAsset: {fileID: 0}
  m_GameObject: {fileID: 0}
  m_Enabled: 1
  m_EditorHideFlags: 0
  m_Script: {fileID: 11500000, guid: 3c33a005d92f45c194b9270a89a84865, type: 3}
  m_Name: W2_M006-W2_M005 Mechanism Data
  m_EditorClassIdentifier: 
  AssetAddress: W2_M5
  MechanismId: 38d6cfc7adf9a1047b9fa3bbcc32f35c
  WorldId: 86666ae3e192e4b4c881d6bdcb660deb
  GroupId: 30ff730aad395454d8dd37abdc68185b
  IsExtraMechanism: 0
  CoverAddress: M38d6cfc7adf9a1047b9fa3bbcc32f35c
  InterviewYValue: 2
