%YAML 1.1
%TAG !u! tag:unity3d.com,2011:
--- !u!114 &11400000
MonoBehaviour:
  m_ObjectHideFlags: 0
  m_CorrespondingSourceObject: {fileID: 0}
  m_PrefabInstance: {fileID: 0}
  m_PrefabAsset: {fileID: 0}
  m_GameObject: {fileID: 0}
  m_Enabled: 1
  m_EditorHideFlags: 0
  m_Script: {fileID: 11500000, guid: 3c33a005d92f45c194b9270a89a84865, type: 3}
  m_Name: W4_M007-W4_M006 Mechanism Data
  m_EditorClassIdentifier: 
  AssetAddress: W4_M6
  MechanismId: 21f4634492a1e00458b0f8c9340969a5
  WorldId: 6472b580fce284846822b529629e2ec3
  GroupId: c48bbf4d696d8af4aadcbe8a8fc31ea4
  IsExtraMechanism: 0
  CoverAddress: M21f4634492a1e00458b0f8c9340969a5
  InterviewYValue: 2.41
