%YAML 1.1
%TAG !u! tag:unity3d.com,2011:
--- !u!114 &11400000
MonoBehaviour:
  m_ObjectHideFlags: 0
  m_CorrespondingSourceObject: {fileID: 0}
  m_PrefabInstance: {fileID: 0}
  m_PrefabAsset: {fileID: 0}
  m_GameObject: {fileID: 0}
  m_Enabled: 1
  m_EditorHideFlags: 0
  m_Script: {fileID: 11500000, guid: d69a2b4359a240d398288bd16e5289fb, type: 3}
  m_Name: Mechanism Creation Data
  m_EditorClassIdentifier: 
  mechanismData:
    ObjectPath: {fileID: 919132149155446097, guid: 14d19f34d253d75408941604bf5817dd,
      type: 3}
    TargetFolderPath: {fileID: 102900000, guid: e4646e2e9af5eb5449bd41f290c591d1,
      type: 3}
    ExcludeFromParts:
    - {fileID: 8394860932037841532, guid: 14d19f34d253d75408941604bf5817dd, type: 3}
    Columns:
    - {fileID: 8394860932037841532, guid: 14d19f34d253d75408941604bf5817dd, type: 3}
    AnchorLocalPosition: {x: 0, y: 3, z: 0}
    Name: W4_M5
    Materials:
    - Scheme: {fileID: 11400000, guid: 88ad2ea20ebf06140a9b641d4ae31d52, type: 2}
      Material: {fileID: 2100000, guid: 7c6f5f6f8487e7c44a00ab6e1dbddcc3, type: 2}
    - Scheme: {fileID: 11400000, guid: 2572bf4aac14e1641b377282f44b9ea2, type: 2}
      Material: {fileID: 2100000, guid: c48998087baad9e4296b8d6e14c4e23f, type: 2}
    ColumnMaterial: {fileID: 2100000, guid: 482390c9098579b44a5293f95862d2e7, type: 2}
