%YAML 1.1
%TAG !u! tag:unity3d.com,2011:
--- !u!114 &11400000
MonoBehaviour:
  m_ObjectHideFlags: 0
  m_CorrespondingSourceObject: {fileID: 0}
  m_PrefabInstance: {fileID: 0}
  m_PrefabAsset: {fileID: 0}
  m_GameObject: {fileID: 0}
  m_Enabled: 1
  m_EditorHideFlags: 0
  m_Script: {fileID: 11500000, guid: ca0053bbedacfb349bc825eaa8147233, type: 3}
  m_Name: LocaliseInterviewReason
  m_EditorClassIdentifier: 
  TitleKey: InterviewReason.title
  TitleKeyNoName: InterviewReason.titleNoName
  DescriptionKey: InterviewReason.description
  ContinueKey: Interview.Continue
