%YAML 1.1
%TAG !u! tag:unity3d.com,2011:
--- !u!114 &11400000
MonoBehaviour:
  m_ObjectHideFlags: 0
  m_CorrespondingSourceObject: {fileID: 0}
  m_PrefabInstance: {fileID: 0}
  m_PrefabAsset: {fileID: 0}
  m_GameObject: {fileID: 0}
  m_Enabled: 1
  m_EditorHideFlags: 0
  m_Script: {fileID: 11500000, guid: 445d11397d9d46a7ba7dc97d433b983d, type: 3}
  m_Name: Meditation Track 0 Winter
  m_EditorClassIdentifier: 
  TrackId: 0
  NameKey: Meditation.Name.1
  BackgroundMaterials:
    BackgroundMaterial1: {fileID: 2100000, guid: 38efa10b5c42b2144a04bc34883ddab6,
      type: 2}
    BackgroundMaterial2: {fileID: 2100000, guid: 388a90c9d33f9094f921c64c87d5f8ae,
      type: 2}
    BackgroundMaterial3: {fileID: 2100000, guid: c6e029241ae65cc489265a874cb2e646,
      type: 2}
    BackgroundMaterial4: {fileID: 0}
  Length: 111.402
