%YAML 1.1
%TAG !u! tag:unity3d.com,2011:
--- !u!114 &11400000
MonoBehaviour:
  m_ObjectHideFlags: 0
  m_CorrespondingSourceObject: {fileID: 0}
  m_PrefabInstance: {fileID: 0}
  m_PrefabAsset: {fileID: 0}
  m_GameObject: {fileID: 0}
  m_Enabled: 1
  m_EditorHideFlags: 0
  m_Script: {fileID: 11500000, guid: 445d11397d9d46a7ba7dc97d433b983d, type: 3}
  m_Name: Meditation Track 3 Forest
  m_EditorClassIdentifier: 
  TrackId: 3
  NameKey: Meditation.Name.4
  BackgroundMaterials:
    BackgroundMaterial1: {fileID: 2100000, guid: 9d6a541650ee5c943af0e05c7b1d9b36,
      type: 2}
    BackgroundMaterial2: {fileID: 2100000, guid: 97d42c6d40fb4ba4db82807ce035517d,
      type: 2}
    BackgroundMaterial3: {fileID: 2100000, guid: 94c1342d2f8ccc14c88fbdea0d87ed05,
      type: 2}
    BackgroundMaterial4: {fileID: 2100000, guid: 6a55b13ba29cb3849bdadac3a4278494,
      type: 2}
  Length: 105.944
