%YAML 1.1
%TAG !u! tag:unity3d.com,2011:
--- !u!114 &11400000
MonoBehaviour:
  m_ObjectHideFlags: 0
  m_CorrespondingSourceObject: {fileID: 0}
  m_PrefabInstance: {fileID: 0}
  m_PrefabAsset: {fileID: 0}
  m_GameObject: {fileID: 0}
  m_Enabled: 1
  m_EditorHideFlags: 0
  m_Script: {fileID: 11500000, guid: 65c6820be3db5bb4e952dd19d5cd9e10, type: 3}
  m_Name: Color Scheme 5
  m_EditorClassIdentifier: 
  ColorData:
    Color: {r: 0.5647059, g: 0.15686275, b: 0.8941177, a: 1}
    MechanismColor: {r: 0.5073985, g: 0.37891603, b: 0.6132076, a: 1}
    EnvironmentColor: {r: 0.19975476, g: 0.1546369, b: 0.23584908, a: 1}
    FloorColor: {r: 0.1634139, g: 0.120550014, b: 0.1981132, a: 1}
    CameraSolidColor: {r: 0.12944998, g: 0.101815596, b: 0.1509434, a: 1}
    ColumnColor: {r: 0.2, g: 0.15294118, b: 0.23529412, a: 1}
    LightWorldCameraSolidColor: {r: 0, g: 0, b: 0, a: 1}
    LightWorldFloorColor: {r: 0.21118085, g: 0.15686275, b: 0.3372549, a: 1}
    LightWorldColorData:
      FakeLightColor: {r: 0.45651126, g: 0.17254902, b: 0.7176471, a: 1}
      GlowColor:
        MainColor: {r: 0.2827119, g: 0.21176468, b: 0.6313726, a: 1}
        SecondColor: {r: 0.21899103, g: 0, b: 0.34901962, a: 1}
      DissolveColor:
        Texture: {fileID: 2800000, guid: 78b9775cfc890154da79ee7b87968c34, type: 3}
        OuterEdgeColor: {r: 0.9716981, g: 0.45376468, b: 0.5511207, a: 1}
        InnerEdgeColor: {r: 0.81361926, g: 0.46742615, b: 0.9811321, a: 1}
        GlowColor: {r: 0.72290385, g: 0.5176471, b: 0.972549, a: 1}
    SpecialLightWorldColorData:
      FakeLightColor: {r: 0.8962264, g: 0.8962264, b: 0.8962264, a: 1}
      GlowColor:
        MainColor: {r: 0.6320754, g: 0.6320754, b: 0.6320754, a: 1}
        SecondColor: {r: 0.9150943, g: 0.9150943, b: 0.9150943, a: 1}
      DissolveColor:
        Texture: {fileID: 2800000, guid: 78b9775cfc890154da79ee7b87968c34, type: 3}
        OuterEdgeColor: {r: 1, g: 1, b: 1, a: 1}
        InnerEdgeColor: {r: 0.254717, g: 0.254717, b: 0.254717, a: 1}
        GlowColor: {r: 0.6226415, g: 0.6226415, b: 0.6226415, a: 1}
  Icon: {fileID: 21300000, guid: b9365eecc5366f34682d2e4350910a67, type: 3}
  Guid: d9dc7518971eff042a6f65a821120b3b
